%!PS-Adobe-3.0 EPSF-3.0
%%Creator: cairo 1.17.3 (https://cairographics.org)
%%CreationDate: Tue Oct 20 08:59:12 2020
%%Pages: 1
%%DocumentData: Clean7Bit
%%LanguageLevel: 2
%%BoundingBox: 5 5 104 84
%%EndComments
%%BeginProlog
50 dict begin
/q { gsave } bind def
/Q { grestore } bind def
/cm { 6 array astore concat } bind def
/w { setlinewidth } bind def
/J { setlinecap } bind def
/j { setlinejoin } bind def
/M { setmiterlimit } bind def
/d { setdash } bind def
/m { moveto } bind def
/l { lineto } bind def
/c { curveto } bind def
/h { closepath } bind def
/re { exch dup neg 3 1 roll 5 3 roll moveto 0 rlineto
      0 exch rlineto 0 rlineto closepath } bind def
/S { stroke } bind def
/f { fill } bind def
/f* { eofill } bind def
/n { newpath } bind def
/W { clip } bind def
/W* { eoclip } bind def
/BT { } bind def
/ET { } bind def
/BDC { mark 3 1 roll /BDC pdfmark } bind def
/EMC { mark /EMC pdfmark } bind def
/cairo_store_point { /cairo_point_y exch def /cairo_point_x exch def } def
/Tj { show currentpoint cairo_store_point } bind def
/TJ {
  {
    dup
    type /stringtype eq
    { show } { -0.001 mul 0 cairo_font_matrix dtransform rmoveto } ifelse
  } forall
  currentpoint cairo_store_point
} bind def
/cairo_selectfont { cairo_font_matrix aload pop pop pop 0 0 6 array astore
    cairo_font exch selectfont cairo_point_x cairo_point_y moveto } bind def
/Tf { pop /cairo_font exch def /cairo_font_matrix where
      { pop cairo_selectfont } if } bind def
/Td { matrix translate cairo_font_matrix matrix concatmatrix dup
      /cairo_font_matrix exch def dup 4 get exch 5 get cairo_store_point
      /cairo_font where { pop cairo_selectfont } if } bind def
/Tm { 2 copy 8 2 roll 6 array astore /cairo_font_matrix exch def
      cairo_store_point /cairo_font where { pop cairo_selectfont } if } bind def
/g { setgray } bind def
/rg { setrgbcolor } bind def
/d1 { setcachedevice } bind def
/cairo_data_source {
  CairoDataIndex CairoData length lt
    { CairoData CairoDataIndex get /CairoDataIndex CairoDataIndex 1 add def }
    { () } ifelse
} def
/cairo_flush_ascii85_file { cairo_ascii85_file status { cairo_ascii85_file flushfile } if } def
/cairo_image { image cairo_flush_ascii85_file } def
/cairo_imagemask { imagemask cairo_flush_ascii85_file } def
%%EndProlog
%%BeginSetup
%%EndSetup
%%Page: 1 1
%%BeginPageSetup
%%PageBoundingBox: 5 5 104 84
%%EndPageSetup
q 5 5 99 79 rectclip
1 0 0 -1 0 89 cm q
1 g
25.203 6.375 m 24.434 6.375 23.434 6.656 22.203 7.219 c 19.387 8.555 17.004
 10.836 15.055 14.062 c 13.105 17.344 12.133 21.188 12.133 25.594 c 12.133
 27.379 12.34 29.094 12.734 30.742 c 10.223 30.742 l 9.148 30.742 8.223 
31.102 7.457 31.82 c 6.738 32.539 6.379 33.434 6.379 34.508 c 6.379 35.586
 6.738 36.508 7.457 37.277 c 8.223 38.047 9.148 38.43 10.223 38.43 c 15.605
 38.43 l 15.605 74.562 l 10.223 74.562 l 9.148 74.562 8.223 74.945 7.457
 75.715 c 6.738 76.43 6.379 77.328 6.379 78.406 c 6.379 79.48 6.738 80.402
 7.457 81.172 c 8.223 81.891 9.148 82.246 10.223 82.246 c 28.598 82.246 
l 29.672 82.246 30.57 81.891 31.285 81.172 c 31.691 80.738 31.969 80.246
 32.148 79.715 c 32.488 80.492 33.062 81.109 33.875 81.562 c 34.906 82.137
 36.062 82.223 37.34 81.82 c 38.621 81.422 39.598 80.613 40.27 79.406 c 
40.844 78.375 40.992 77.316 40.719 76.227 c 40.508 75.258 40.027 74.508 
39.281 73.965 c 47.105 76.324 l 47.105 78.746 l 47.105 79.719 47.492 80.59
 48.262 81.359 c 49.027 82.125 49.898 82.484 50.875 82.434 c 75.934 80.82
 l 76.008 80.816 76.078 80.793 76.152 80.785 c 76.43 81.121 76.77 81.41 
77.18 81.645 c 78.098 82.16 79.051 82.297 80.047 82.059 c 80.051 82.059 
l 81.098 81.805 81.883 81.246 82.41 80.379 c 82.941 79.512 83.078 78.559
 82.824 77.512 c 79.684 64.512 l 83.781 63.363 87.77 61.656 91.656 59.402
 c 95.539 57.145 98.625 54.316 100.914 50.914 c 103.199 47.516 103.84 43.723
 102.828 39.539 c 101.574 34.355 98.301 30.957 93.008 29.336 c 87.926 27.754
 80.938 28.008 72.078 30.062 c 64.543 27.789 l 64.547 27.543 64.562 27.305
 64.562 27.055 c 64.562 26.98 64.559 26.906 64.555 26.832 c 64.926 27.176
 65.367 27.473 65.891 27.711 c 67.113 28.27 68.375 28.328 69.688 27.879 
c 70.801 27.5 71.625 26.812 72.152 25.82 c 72.727 24.812 72.836 23.773 72.473
 22.707 c 72.09 21.59 71.266 20.762 70 20.223 c 68.777 19.66 67.562 19.59
 66.348 20.004 c 65.379 20.332 64.617 20.871 64.047 21.594 c 63.75 20.141
 63.34 18.781 62.793 17.523 c 61.613 14.805 59.949 12.703 57.797 11.219 
c 55.695 9.785 53.285 9.066 50.57 9.066 c 46.574 9.066 43.422 10.555 41.113
 13.523 c 38.859 16.496 37.016 20.57 35.582 25.746 c 34.574 29.309 33.469
 31.93 32.262 33.617 c 32.113 32.93 31.793 32.328 31.285 31.82 c 30.57 31.102
 29.672 30.742 28.598 30.742 c 20.133 30.742 l 19.621 29.27 19.359 27.609
 19.359 25.746 c 19.359 23.238 19.949 20.879 21.129 18.676 c 22.309 16.473
 24 14.961 26.203 14.141 c 27.074 13.832 27.766 13.344 28.277 12.68 c 28.789
 12.012 29.047 11.219 29.047 10.297 c 29.047 9.219 28.66 8.297 27.895 7.527
 c 27.176 6.758 26.277 6.375 25.203 6.375 c h
51.109 16.523 m 53.055 16.523 54.594 17.418 55.719 19.215 c 56.73 20.754
 57.309 22.902 57.449 25.648 c 48.512 22.949 l 47.48 22.641 46.484 22.742
 45.527 23.254 c 44.887 23.598 44.398 24.094 44.059 24.723 c 44.895 22.367
 45.734 20.547 46.574 19.289 c 47.801 17.445 49.316 16.523 51.109 16.523
 c h
42.25 30.387 m 31.059 67.469 l 31.004 67.656 30.973 67.844 30.941 68.031
 c 30.75 67.48 30.449 66.984 30.035 66.539 c 29.266 65.668 28.316 65.23 
27.191 65.23 c 26.012 65.23 24.961 65.746 24.039 66.77 c 23.738 67.086 23.492
 67.418 23.293 67.766 c 23.293 63.047 l 23.594 63.484 23.988 63.887 24.484
 64.242 c 25.57 65.031 26.797 65.332 28.168 65.152 c 29.34 64.996 30.277
 64.484 30.992 63.617 c 31.754 62.738 32.059 61.742 31.914 60.625 c 31.758
 59.457 31.113 58.48 29.977 57.699 c 28.891 56.914 27.711 56.605 26.441 
56.773 c 25.223 56.934 24.227 57.426 23.457 58.254 c 23.398 58.324 23.344
 58.402 23.293 58.477 c 23.293 43.418 l 24.652 43.883 26.082 44.121 27.586
 44.121 c 31.273 44.121 34.375 42.789 36.887 40.121 c 39.059 37.816 40.848
 34.57 42.25 30.387 c h
54.539 32.801 m 56.25 33.316 l 56.176 33.457 56.105 33.605 56.027 33.742
 c 55.637 34.457 55.199 35.031 54.719 35.48 c 54.719 33.926 l 54.719 33.527
 54.656 33.152 54.539 32.801 c h
63.379 35.469 m 64.969 35.949 l 65.012 36.172 65.051 36.391 65.113 36.633
 c 68.547 50.848 l 68.512 50.836 68.484 50.82 68.445 50.809 c 54.719 46.664
 l 54.719 43.789 l 57.477 43.414 59.734 41.938 61.484 39.352 c 62.266 38.223
 62.895 36.926 63.379 35.469 c h
84.262 35.859 m 85.977 35.812 87.52 35.922 88.887 36.184 c 92.586 36.871
 94.766 38.586 95.43 41.328 c 96.32 45.012 94.828 48.219 90.953 50.949 c
 87.066 53.629 82.719 55.707 77.91 57.188 c 73.391 38.488 l 75.652 39.172
 l 76.684 39.484 77.645 39.398 78.539 38.918 c 79.445 38.391 80.059 37.609
 80.371 36.582 c 80.41 36.441 80.43 36.309 80.457 36.172 c 81.805 35.996
 83.074 35.891 84.262 35.859 c h
47.105 40.633 m 47.105 44.367 l 46.074 44.055 l h
89.035 41.441 m 87.855 41.441 86.805 41.953 85.883 42.98 c 84.957 43.953
 84.496 45.078 84.496 46.359 c 84.496 47.59 84.855 48.641 85.574 49.512 
c 86.344 50.332 87.316 50.742 88.496 50.742 c 89.672 50.742 90.723 50.254
 91.648 49.281 c 92.57 48.309 93.031 47.129 93.031 45.746 c 93.031 44.566
 92.645 43.57 91.879 42.75 c 91.109 41.879 90.16 41.441 89.035 41.441 c 
h
43.875 51.34 m 47.105 52.316 l 47.105 68.297 l 39.453 65.984 l h
54.719 54.613 m 66.246 58.094 l 67.277 58.406 68.238 58.32 69.133 57.84
 c 69.492 57.633 69.789 57.375 70.055 57.086 c 74 73.395 l 65.637 73.949
 l 65.453 73.863 65.27 73.777 65.066 73.715 c 54.719 70.594 l h
31.16 70.094 m 31.203 70.203 31.234 70.316 31.289 70.43 c 31.816 71.336
 32.598 71.949 33.629 72.258 c 36.82 73.223 l 36.355 73.242 35.875 73.336
 35.371 73.508 c 34.09 73.91 33.141 74.672 32.516 75.793 c 32.316 76.148
 32.18 76.508 32.07 76.871 c 31.891 76.441 31.629 76.059 31.285 75.715 c
 30.621 74.945 29.723 74.562 28.598 74.562 c 23.293 74.562 l 23.293 72.664
 l 23.418 72.887 23.562 73.102 23.73 73.301 c 24.5 74.121 25.473 74.531 
26.652 74.531 c 27.832 74.531 28.879 74.047 29.805 73.074 c 30.598 72.23
 31.051 71.238 31.16 70.094 c h
31.16 70.094 m f
0 g
25.199 5.668 m 24.258 5.668 23.188 5.988 21.906 6.574 c 21.902 6.582 l 
18.941 7.98 16.453 10.375 14.449 13.695 c 14.445 13.703 l 12.426 17.102 
11.426 21.082 11.426 25.594 c 11.426 27.121 11.574 28.598 11.855 30.031 
c 10.227 30.031 l 8.992 30.031 7.859 30.469 6.969 31.301 c 6.965 31.305 
6.961 31.312 6.953 31.316 c 6.109 32.16 5.668 33.277 5.668 34.512 c 5.668
 35.746 6.105 36.871 6.938 37.762 c 6.941 37.766 6.949 37.773 6.953 37.777
 c 7.84 38.664 8.98 39.141 10.227 39.141 c 14.895 39.141 l 14.895 73.855
 l 10.227 73.855 l 8.98 73.855 7.84 74.328 6.953 75.215 c 6.109 76.059 5.668
 77.168 5.668 78.402 c 5.668 79.637 6.105 80.766 6.938 81.652 c 6.945 81.664
 6.957 81.676 6.969 81.688 c 7.859 82.52 8.992 82.953 10.227 82.953 c 28.594
 82.953 l 28.77 82.953 28.938 82.945 29.105 82.926 c 34.746 82.926 l 35.301
 83.094 35.918 83.23 36.031 83.176 c 36.109 83.145 36.16 83.141 36.148 83.176
 c 36.141 83.211 36.215 83.191 36.312 83.156 c 36.41 83.109 36.695 83.055
 36.949 83.035 c 37.199 83.016 37.41 82.977 37.617 82.926 c 49.438 82.926
 l 49.906 83.09 50.402 83.172 50.914 83.145 c 50.918 83.145 l 54.277 82.926
 l 96.383 82.926 l 96.773 82.926 97.094 82.609 97.09 82.219 c 97.09 81.828
 96.773 81.512 96.383 81.512 c 82.426 81.512 l 82.648 81.281 82.848 81.031
 83.02 80.75 c 83.641 79.734 83.809 78.547 83.516 77.348 c 80.508 64.922
 l 84.438 63.762 88.285 62.176 92.012 60.012 c 95.973 57.707 99.148 54.801
 101.5 51.309 c 103.891 47.758 104.562 43.719 103.512 39.371 c 102.211 33.988
 98.695 30.336 93.215 28.66 c 93.211 28.66 l 90.828 27.918 88.082 27.566
 84.965 27.594 c 84.52 27.598 84.066 27.609 83.605 27.629 c 80.195 27.773
 76.352 28.355 72.109 29.332 c 70.312 28.789 l 70.352 28.762 70.359 28.762
 70.406 28.73 c 71.441 28.023 71.523 27.973 71.48 27.902 c 71.453 27.867
 71.578 27.715 71.75 27.566 c 72.02 27.336 72.309 26.934 72.844 26.066 c
 72.91 25.961 72.957 25.797 72.949 25.703 c 72.949 25.602 72.98 25.496 73.039
 25.461 c 73.094 25.426 73.141 25.301 73.125 25.184 c 73.125 25.066 73.125
 24.797 73.168 24.582 c 73.203 24.371 73.199 23.945 73.141 23.633 c 73.094
 23.324 73.062 23.012 73.082 22.938 c 73.109 22.859 73.082 22.742 73.031
 22.672 c 72.984 22.602 72.965 22.516 72.98 22.469 c 73.035 22.359 72.629
 21.496 72.344 21.07 c 72.051 20.637 71.719 20.297 71.27 19.922 c 70.859
 19.582 70.309 19.445 69.797 19.301 c 69.426 19.199 68.711 19.102 68.656
 19.137 c 68.602 19.176 68.387 19.172 68.176 19.141 c 67.965 19.109 67.754
 19.102 67.707 19.141 c 67.664 19.172 67.52 19.168 67.395 19.141 c 67.27
 19.105 67.137 19.113 67.102 19.168 c 67.07 19.227 66.953 19.266 66.832 
19.246 c 66.648 19.246 65.973 19.562 65.199 20.031 c 65.207 20.012 l 65 
20.148 64.746 20.363 64.539 20.582 c 64.254 19.406 63.895 18.289 63.441 
17.242 c 62.219 14.422 60.465 12.203 58.199 10.637 c 55.98 9.121 53.41 8.359
 50.57 8.359 c 46.395 8.359 42.98 9.957 40.555 13.086 c 40.555 13.098 l 
38.223 16.172 36.348 20.32 34.895 25.555 c 34.902 25.555 l 34.117 28.336
 33.266 30.504 32.387 32.074 c 32.219 31.805 32.023 31.551 31.789 31.316
 c 30.949 30.477 29.828 30.031 28.598 30.031 c 20.645 30.031 l 20.266 28.762
 20.07 27.344 20.07 25.75 c 20.07 23.352 20.625 21.117 21.754 19.012 c 22.859
 16.941 24.395 15.574 26.434 14.809 c 26.445 14.805 l 27.422 14.457 28.242
 13.883 28.836 13.109 c 29.445 12.316 29.758 11.352 29.758 10.297 c 29.758
 9.059 29.277 7.926 28.402 7.043 c 27.562 6.148 26.441 5.668 25.199 5.668
 c h
25.199 7.086 m 26.109 7.086 26.781 7.371 27.379 8.012 c 27.383 8.023 l 
27.395 8.027 l 28.047 8.68 28.34 9.391 28.34 10.297 c 28.34 11.09 28.129
 11.707 27.715 12.246 c 27.289 12.801 26.727 13.203 25.965 13.469 c 25.961
 13.477 l 25.953 13.477 l 23.594 14.355 21.754 16.008 20.504 18.344 c 19.273
 20.645 18.652 23.129 18.652 25.75 c 18.652 29.039 19.426 31.812 21.016 
34.004 c 22.648 36.234 24.77 37.449 27.199 37.449 c 29.129 37.449 30.887
 36.453 32.359 34.652 c 33.863 32.867 35.121 29.98 36.262 25.938 c 37.68
 20.824 39.5 16.828 41.676 13.957 c 43.859 11.141 46.746 9.777 50.566 9.777
 c 53.16 9.777 55.41 10.449 57.395 11.805 c 59.43 13.207 61.012 15.188 62.145
 17.805 c 62.695 19.07 63.102 20.461 63.383 21.953 c 63.344 22.078 63.258
 22.25 63.164 22.383 c 63.059 22.531 62.887 22.941 62.785 23.289 c 62.684
 23.637 62.57 23.855 62.555 24.156 c 62.527 24.543 62.617 24.934 62.734 
25.305 c 62.855 25.691 63.188 26.16 63.281 26.387 c 63.316 26.477 63.387
 26.602 63.449 26.719 c 58.125 25.109 l 57.938 22.52 57.359 20.418 56.32
 18.836 c 56.316 18.828 l 55.09 16.883 53.273 15.812 51.109 15.812 c 49.074
 15.812 47.305 16.918 45.984 18.895 c 45.102 20.223 44.25 22.07 43.406 24.43
 c 43.258 24.707 43.137 25 43.039 25.316 c 41.57 30.184 l 40.191 34.285 
38.445 37.434 36.371 39.637 c 33.98 42.172 31.105 43.41 27.586 43.41 c 24.855
 43.41 22.402 42.617 20.156 41.008 c 17.898 39.387 16.109 37.215 14.77 34.438
 c 14.773 34.438 l 13.488 31.715 12.844 28.777 12.844 25.594 c 12.844 21.293
 13.789 17.586 15.66 14.43 c 15.668 14.422 l 17.559 11.289 19.836 9.125 
22.508 7.859 c 23.68 7.324 24.605 7.086 25.199 7.086 c h
51.109 17.227 m 52.84 17.227 54.09 17.953 55.121 19.594 c 55.125 19.598
 l 55.129 19.605 l 55.922 20.809 56.441 22.504 56.656 24.668 c 48.715 22.27
 l 48.27 22.137 47.816 22.07 47.367 22.07 c 46.816 22.07 46.27 22.176 45.742
 22.379 c 46.227 21.281 46.703 20.375 47.164 19.684 c 48.305 17.969 49.559
 17.23 51.109 17.23 c h
67.973 20.625 m 68.02 20.625 68.059 20.641 68.09 20.664 c 68.156 20.707
 68.227 20.723 68.258 20.691 c 68.293 20.664 68.48 20.664 68.688 20.719 
c 68.898 20.77 69.098 20.793 69.137 20.766 c 69.176 20.738 69.262 20.766
 69.344 20.836 c 69.418 20.898 69.496 20.918 69.52 20.879 c 69.551 20.828
 69.633 20.805 69.738 20.836 c 69.84 20.867 69.957 20.836 70 20.809 c 70.043
 20.777 70.094 20.809 70.117 20.859 c 70.121 20.926 70.301 21.023 70.477
 21.09 c 70.648 21.16 70.793 21.258 70.797 21.305 c 70.797 21.355 70.961
 21.555 71.129 21.762 c 71.391 22.051 71.48 22.219 71.562 22.547 c 71.754
 23.32 71.812 23.848 71.723 23.906 c 71.672 23.941 71.66 24.016 71.695 24.066
 c 71.73 24.121 71.727 24.219 71.668 24.281 c 71.625 24.344 71.617 24.441
 71.668 24.5 c 71.773 24.668 71.586 24.949 71.352 24.969 c 71.207 24.969
 71.137 25.043 71.059 25.203 c 71.008 25.324 70.934 25.414 70.902 25.41 
c 70.859 25.41 70.75 25.508 70.656 25.656 c 70.48 25.91 70.082 26.18 69.812
 26.242 c 69.734 26.27 69.559 26.312 69.426 26.391 c 69.281 26.453 69.059
 26.516 68.914 26.516 c 68.773 26.516 68.609 26.543 68.559 26.582 c 68.445
 26.652 66.984 26.32 66.91 26.207 c 66.883 26.168 66.695 26.09 66.48 26.031
 c 66.27 25.969 66.078 25.875 66.051 25.82 c 66.008 25.691 65.68 25.391 
65.457 25.246 c 65.371 25.191 65.23 25.016 65.148 24.855 c 64.992 24.547
 64.797 23.156 64.902 23.086 c 64.941 23.059 64.934 22.988 64.875 22.914
 c 64.777 22.766 64.969 22.184 65.129 22.145 c 65.195 22.141 65.316 22.02
 65.406 21.867 c 65.508 21.719 65.785 21.492 66.059 21.309 c 66.066 21.297
 l 66.344 21.117 66.613 20.98 66.707 20.996 c 66.777 21.023 66.93 20.965
 67.043 20.891 c 67.156 20.816 67.352 20.754 67.473 20.758 c 67.598 20.758
 67.762 20.715 67.84 20.664 c 67.879 20.641 67.926 20.629 67.973 20.625 
c h
47.062 23.492 m 47.465 23.449 47.871 23.496 48.305 23.625 c 65.492 28.812
 l 65.875 29.07 66.234 29.219 66.789 29.359 c 67.117 29.441 67.406 29.543
 67.434 29.586 c 67.461 29.629 67.52 29.641 67.559 29.613 c 67.602 29.586
 67.719 29.582 67.816 29.613 c 67.883 29.633 67.973 29.617 68.055 29.586
 c 77.672 32.492 l 78.539 32.754 79.094 33.223 79.48 34.008 c 79.484 34.016
 79.488 34.02 79.492 34.027 c 79.887 34.766 79.957 35.496 79.691 36.375 
c 79.43 37.25 78.953 37.848 78.203 38.293 c 78.199 38.293 78.199 38.293 
78.195 38.293 c 77.461 38.688 76.73 38.758 75.855 38.492 c 55.062 32.215
 l 54.828 31.699 54.492 31.227 54.059 30.816 c 53.227 29.938 52.145 29.449
 50.953 29.449 c 49.707 29.449 48.566 29.926 47.68 30.812 c 46.844 31.648
 46.395 32.738 46.395 33.93 c 46.395 40.531 l 45.395 43.852 l 45.281 44.227
 45.496 44.617 45.867 44.73 c 46.395 44.891 l 46.395 51.359 l 44.082 50.66
 l 44.004 50.637 43.922 50.625 43.84 50.633 c 43.539 50.645 43.281 50.848
 43.195 51.137 c 38.777 65.781 l 38.66 66.156 38.871 66.555 39.246 66.668
 c 46.395 68.824 l 46.395 75.371 l 33.832 71.578 l 33.004 71.328 32.43 70.879
 31.992 70.188 c 31.98 70.035 31.93 69.812 31.832 69.434 c 31.703 68.977
 31.652 68.793 31.594 68.602 c 31.602 68.301 31.637 67.996 31.734 67.676
 c 44.398 25.723 l 44.664 24.844 45.125 24.277 45.863 23.883 c 46.27 23.664
 46.664 23.535 47.062 23.492 c h
84.973 29.02 m 87.98 28.992 90.59 29.328 92.797 30.016 c 92.797 30.016 
92.801 30.016 92.801 30.016 c 97.91 31.578 100.938 34.727 102.141 39.703
 c 103.113 43.727 102.512 47.27 100.324 50.516 c 98.098 53.824 95.102 56.578
 91.301 58.789 c 87.465 61.02 83.531 62.695 79.492 63.828 c 79.121 63.93
 78.902 64.309 78.992 64.68 c 82.141 77.68 l 82.355 78.57 82.242 79.293 
81.805 80.008 c 81.371 80.723 80.777 81.156 79.883 81.371 c 79.883 81.371
 79.883 81.371 79.879 81.371 c 79.074 81.566 78.355 81.465 77.605 81.062
 c 78.062 80.816 78.484 80.48 78.852 80.059 c 78.855 80.055 l 79.656 79.137
 80.102 78.078 80.102 76.977 c 80.102 75.703 79.66 74.582 78.805 73.781 
c 77.957 72.938 76.832 72.52 75.594 72.578 c 75.59 72.578 l 74.547 72.648
 l 70.832 57.285 l 71.191 56.824 71.465 56.297 71.641 55.711 c 72 54.527
 71.902 53.332 71.336 52.285 c 70.855 51.387 70.094 50.711 69.148 50.309
 c 65.922 36.973 l 72.797 39.047 l 77.223 57.355 l 77.32 57.75 77.73 57.984
 78.121 57.863 c 82.992 56.363 87.406 54.254 91.355 51.531 c 91.359 51.531
 91.359 51.531 91.363 51.531 c 95.379 48.699 97.074 45.113 96.117 41.16 
c 95.387 38.145 92.875 36.207 89.02 35.492 c 87.949 35.285 86.785 35.168
 85.527 35.141 c 85.109 35.133 84.68 35.133 84.238 35.145 c 83.652 35.16
 83.051 35.191 82.426 35.242 c 82.047 35.273 81.645 35.32 81.25 35.367 c
 81.242 34.676 81.074 34 80.742 33.375 c 80.199 32.281 79.266 31.492 78.078
 31.133 c 74.945 30.188 l 78.121 29.559 81.047 29.16 83.66 29.051 c 84.105
 29.035 84.543 29.023 84.973 29.02 c h
50.953 30.867 m 51.801 30.867 52.441 31.152 53.043 31.797 c 53.078 31.832
 l 53.723 32.434 54.008 33.082 54.008 33.93 c 54.008 75.426 l 75.672 73.992
 l 75.66 73.996 l 76.574 73.953 77.227 74.203 77.816 74.789 c 77.824 74.793
 l 77.836 74.805 l 78.406 75.336 78.684 75.996 78.684 76.977 c 78.684 77.715
 78.41 78.402 77.781 79.125 c 77.781 79.129 l 77.215 79.781 76.629 80.074
 75.895 80.113 c 54.184 81.512 l 49.676 81.512 l 49.363 81.367 49.062 81.16
 48.758 80.855 c 48.098 80.195 47.812 79.535 47.812 78.746 c 47.812 33.93
 l 47.812 33.07 48.082 32.414 48.684 31.816 c 49.332 31.164 50.043 30.867
 50.953 30.867 c h
10.227 31.449 m 12.18 31.449 l 12.508 32.684 12.945 33.887 13.492 35.047
 c 13.496 35.051 l 13.957 36.004 14.477 36.891 15.043 37.723 c 10.227 37.723
 l 9.32 37.723 8.617 37.426 7.965 36.781 c 7.367 36.137 7.086 35.426 7.086
 34.512 c 7.086 33.598 7.363 32.918 7.949 32.328 c 8.598 31.73 9.312 31.449
 10.227 31.449 c h
21.172 31.449 m 28.598 31.449 l 29.512 31.449 30.191 31.73 30.781 32.32
 c 31.125 32.66 31.348 33.039 31.484 33.469 c 31.414 33.562 31.344 33.66
 31.273 33.746 c 31.27 33.75 l 31.262 33.754 l 29.969 35.336 28.656 36.031
 27.199 36.031 c 25.223 36.031 23.602 35.141 22.16 33.168 c 21.777 32.641
 21.449 32.062 21.172 31.449 c h
56.598 34.16 m 62.457 35.93 l 62.035 37.051 61.52 38.062 60.906 38.953 
c 60.898 38.953 l 59.414 41.141 57.621 42.434 55.426 42.93 c 55.426 35.754
 l 55.859 35.305 56.254 34.777 56.598 34.16 c h
63.812 36.336 m 64.359 36.504 l 64.383 36.605 64.395 36.695 64.422 36.805
 c 67.562 49.801 l 55.426 46.137 l 55.426 44.371 l 58.102 43.832 60.359 
42.273 62.066 39.758 c 62.77 38.738 63.344 37.59 63.812 36.336 c h
85.5 36.562 m 86.688 36.586 87.773 36.691 88.754 36.879 c 88.758 36.879
 88.758 36.879 88.762 36.879 c 92.301 37.539 94.145 39.031 94.738 41.492
 c 95.125 43.09 95.043 44.555 94.473 45.934 c 94.449 45.812 94.438 45.738
 94.391 45.559 c 94.055 44.348 94.035 44.254 93.953 44.273 c 93.914 44.285
 93.809 44.121 93.723 43.91 c 93.59 43.582 93.305 43.18 92.656 42.391 c 
92.578 42.297 92.438 42.199 92.344 42.176 c 92.25 42.152 92.16 42.082 92.145
 42.012 c 92.129 41.949 92.023 41.867 91.91 41.844 c 91.797 41.812 91.547
 41.707 91.355 41.605 c 91.168 41.504 90.762 41.375 90.453 41.32 c 90.145
 41.266 89.836 41.191 89.77 41.152 c 89.703 41.113 89.586 41.094 89.504 
41.113 c 89.422 41.133 89.332 41.125 89.297 41.098 c 89.207 41.012 88.262
 41.113 87.77 41.246 c 87.262 41.387 86.836 41.59 86.336 41.895 c 85.879
 42.172 85.57 42.648 85.27 43.09 c 85.055 43.406 84.73 44.051 84.746 44.117
 c 84.766 44.176 84.695 44.379 84.594 44.57 c 84.496 44.758 84.426 44.957
 84.438 45.012 c 84.453 45.062 84.398 45.199 84.332 45.305 c 84.258 45.414
 84.227 45.543 84.262 45.594 c 84.305 45.637 84.305 45.766 84.25 45.875 
c 84.188 46.047 84.273 46.789 84.465 47.672 c 84.465 47.668 l 84.578 48.109
 84.902 48.793 85.129 49.004 c 85.227 49.098 85.309 49.207 85.309 49.246
 c 85.328 49.523 85.5 49.879 85.66 49.977 c 85.766 50.043 85.941 50.215 
86.051 50.367 c 86.156 50.516 86.488 50.809 86.785 51.016 c 87.082 51.227
 87.254 51.402 87.531 51.516 c 87.824 51.633 88.145 51.68 88.461 51.699 
c 85.383 53.543 82.008 55.008 78.395 56.18 c 74.371 39.523 l 75.445 39.848
 l 76.625 40.207 77.82 40.105 78.871 39.543 c 78.879 39.539 78.887 39.535
 78.895 39.531 c 79.93 38.93 80.668 37.996 81.031 36.836 c 81.543 36.773
 82.062 36.703 82.543 36.664 c 83.141 36.617 83.719 36.586 84.277 36.57 
c 84.699 36.559 85.105 36.559 85.5 36.562 c h
39.027 38.609 m 32.527 60.148 l 32.5 59.844 32.332 59.199 32.176 58.824
 c 31.973 58.34 31.711 57.945 31.344 57.488 c 31.008 57.074 30.496 56.832
 30.02 56.59 c 29.68 56.418 28.996 56.184 28.938 56.207 c 28.875 56.23 28.664
 56.188 28.465 56.113 c 28.262 56.043 28.059 55.996 28.008 56.016 c 27.957
 56.039 27.816 56.004 27.699 55.949 c 27.586 55.891 27.449 55.879 27.406
 55.918 c 27.363 55.969 27.242 55.984 27.125 55.945 c 26.949 55.902 26.223
 56.086 25.375 56.391 c 25.375 56.395 l 24.949 56.562 24.316 56.973 24.137
 57.223 c 24.086 57.293 24.047 57.32 24 57.359 c 24 44.363 l 25.152 44.668
 26.348 44.828 27.586 44.828 c 31.445 44.828 34.773 43.398 37.402 40.609
 c 37.973 40.004 38.516 39.336 39.027 38.609 c h
16.309 39.375 m 17.215 40.426 18.219 41.359 19.332 42.16 c 20.363 42.898
 21.449 43.477 22.582 43.91 c 22.582 58.758 l 22.504 58.879 22.426 59.008
 22.359 59.133 c 22.191 59.453 22.039 59.648 21.965 59.938 c 21.867 60.312
 21.871 60.715 21.914 61.102 c 21.957 61.5 22.191 62.027 22.238 62.266 c
 22.289 62.527 22.43 62.945 22.582 63.324 c 22.582 67.191 l 22.387 67.523
 22.176 67.941 22.188 67.992 c 22.207 68.055 22.133 68.258 22.035 68.449
 c 21.938 68.637 21.867 68.836 21.879 68.891 c 21.895 68.941 21.84 69.078
 21.77 69.184 c 21.699 69.293 21.668 69.422 21.703 69.469 c 21.746 69.516
 21.746 69.645 21.691 69.75 c 21.629 69.922 21.715 70.668 21.906 71.551 
c 21.906 71.547 l 22.016 71.988 22.34 72.672 22.566 72.883 c 22.574 72.891
 22.574 72.895 22.582 72.902 c 22.582 74.562 l 22.582 74.953 22.898 75.27
 23.293 75.27 c 24.758 75.27 l 24.828 75.312 24.891 75.359 24.973 75.395
 c 25.332 75.535 25.73 75.586 26.117 75.594 c 26.523 75.605 27.074 75.441
 27.316 75.426 c 27.539 75.414 27.875 75.348 28.211 75.27 c 28.598 75.27
 l 29.562 75.27 30.211 75.559 30.75 76.18 c 30.762 76.191 30.77 76.203 30.781
 76.215 c 30.934 76.367 31.066 76.527 31.176 76.691 c 31.062 77.137 31.02
 77.852 31.109 78.137 c 31.152 78.266 31.172 78.402 31.152 78.438 c 31.035
 78.688 31.012 79.082 31.105 79.246 c 31.168 79.352 31.234 79.59 31.258 
79.773 c 31.258 79.805 31.285 79.871 31.293 79.914 c 31.156 80.18 30.992
 80.434 30.77 80.672 c 30.258 81.18 29.672 81.445 28.934 81.512 c 11.953
 81.512 l 11.887 81.512 11.82 81.52 11.758 81.539 c 10.227 81.539 l 9.316
 81.539 8.605 81.25 7.961 80.656 c 7.375 80.016 7.086 79.309 7.086 78.402
 c 7.086 77.484 7.363 76.809 7.957 76.215 c 8.609 75.562 9.316 75.27 10.227
 75.27 c 15.602 75.27 l 15.992 75.27 16.309 74.953 16.309 74.562 c h
88.918 42.469 m 89.707 42.539 90.23 42.656 90.254 42.758 c 90.273 42.816
 90.336 42.852 90.398 42.832 c 90.461 42.816 90.551 42.855 90.594 42.918
 c 90.641 42.98 90.73 43.02 90.801 43 c 90.992 42.953 91.195 43.223 91.141
 43.449 c 91.102 43.59 91.141 43.68 91.27 43.801 c 91.367 43.891 91.43 43.992
 91.41 44.02 c 91.387 44.059 91.457 44.191 91.566 44.328 c 91.75 44.578 
91.875 45.043 91.848 45.316 c 91.836 45.395 91.836 45.582 91.867 45.734 
c 91.875 45.891 91.863 46.121 91.816 46.254 c 91.773 46.391 91.742 46.551
 91.766 46.617 c 91.797 46.746 91.012 48.02 90.883 48.055 c 90.836 48.062
 90.699 48.223 90.574 48.402 c 90.449 48.586 90.297 48.738 90.234 48.742
 c 90.098 48.742 89.707 48.953 89.5 49.121 c 89.418 49.184 89.207 49.258
 89.031 49.285 c 88.688 49.332 87.309 49.066 87.277 48.945 c 87.266 48.906
 87.191 48.887 87.105 48.91 c 86.934 48.953 86.445 48.586 86.457 48.422 
c 86.477 48.355 86.402 48.199 86.289 48.07 c 86.176 47.922 86.055 47.59 
85.969 47.27 c 85.957 47.27 l 85.879 46.949 85.836 46.648 85.879 46.57 c
 85.918 46.504 85.922 46.344 85.891 46.215 c 85.859 46.082 85.863 45.883
 85.902 45.762 c 85.941 45.645 85.953 45.477 85.934 45.387 c 85.914 45.301
 85.945 45.191 86.008 45.148 c 86.066 45.098 86.105 45.035 86.082 44.996
 c 86.07 44.957 86.133 44.777 86.246 44.598 c 86.359 44.418 86.445 44.234
 86.434 44.191 c 86.422 44.145 86.48 44.07 86.57 44.016 c 86.652 43.961 
86.695 43.895 86.664 43.859 c 86.621 43.828 86.633 43.73 86.695 43.641 c
 86.746 43.555 86.777 43.438 86.766 43.387 c 86.75 43.336 86.793 43.293 
86.852 43.293 c 86.918 43.312 87.066 43.172 87.188 43.027 c 87.309 42.887
 87.449 42.781 87.492 42.793 c 87.539 42.812 87.781 42.723 88.031 42.629
 c 88.391 42.473 88.578 42.441 88.918 42.469 c h
55.426 47.617 m 68.242 51.484 l 69.121 51.75 69.691 52.215 70.086 52.953
 c 70.48 53.691 70.551 54.422 70.285 55.301 c 70.02 56.176 69.543 56.77 
68.785 57.215 c 68.051 57.605 67.328 57.68 66.453 57.414 c 55.426 54.086
 l h
44.348 52.223 m 46.395 52.84 l 46.395 67.344 l 40.34 65.516 l h
55.426 55.566 m 66.043 58.77 l 67.227 59.129 68.422 59.031 69.473 58.465
 c 69.477 58.465 69.48 58.461 69.488 58.457 c 69.539 58.426 69.582 58.391
 69.633 58.359 c 73.109 72.742 l 65.773 73.227 l 65.613 73.156 65.441 73.09
 65.27 73.039 c 55.426 70.066 l h
27.965 57.539 m 28.012 57.547 28.051 57.562 28.078 57.59 c 28.133 57.648
 28.199 57.672 28.234 57.645 c 28.273 57.629 28.457 57.668 28.652 57.758
 c 28.848 57.848 29.039 57.906 29.082 57.891 c 29.125 57.871 29.207 57.922
 29.27 58 c 29.336 58.078 29.41 58.109 29.441 58.074 c 29.465 58.031 29.562
 58.023 29.66 58.074 c 29.754 58.117 29.871 58.133 29.922 58.113 c 29.969
 58.09 30.016 58.129 30.027 58.188 c 30.016 58.254 30.172 58.383 30.332 
58.484 c 30.488 58.586 30.609 58.711 30.605 58.758 c 30.594 58.805 30.715
 59.031 30.84 59.27 c 31.039 59.602 31.098 59.785 31.113 60.125 c 31.148
 60.918 31.102 61.449 31 61.488 c 30.945 61.516 30.922 61.582 30.945 61.641
 c 30.973 61.703 30.945 61.797 30.887 61.848 c 30.832 61.902 30.809 61.996
 30.836 62.062 c 30.906 62.246 30.668 62.484 30.434 62.457 c 30.289 62.438
 30.207 62.488 30.102 62.633 c 30.023 62.742 29.934 62.816 29.902 62.801
 c 29.863 62.785 29.738 62.867 29.617 62.996 c 29.395 63.211 28.949 63.398
 28.672 63.406 c 28.594 63.406 28.414 63.43 28.262 63.477 c 28.109 63.508
 27.883 63.527 27.742 63.5 c 27.602 63.473 27.438 63.465 27.379 63.492 c
 27.254 63.543 25.887 62.93 25.836 62.805 c 25.82 62.762 25.645 62.648 25.449
 62.547 c 25.254 62.445 25.082 62.312 25.066 62.254 c 25.051 62.117 24.789
 61.762 24.598 61.578 c 24.523 61.504 24.422 61.305 24.371 61.133 c 24.277
 60.797 24.359 59.395 24.477 59.352 c 24.516 59.336 24.523 59.258 24.492
 59.176 c 24.426 59.008 24.727 58.477 24.891 58.469 c 24.957 58.48 25.102
 58.383 25.215 58.254 c 25.348 58.125 25.664 57.961 25.965 57.832 c 25.965
 57.82 l 26.27 57.699 26.562 57.617 26.652 57.652 c 26.719 57.68 26.879 
57.664 27.004 57.617 c 27.129 57.566 27.328 57.543 27.453 57.57 c 27.574
 57.594 27.742 57.582 27.828 57.551 c 27.871 57.535 27.922 57.531 27.965
 57.539 c h
31.301 64.207 m 30.516 66.809 l 30.383 66.637 30.281 66.496 30.094 66.27
 c 30.016 66.176 29.875 66.078 29.785 66.055 c 29.688 66.027 29.602 65.957
 29.586 65.891 c 29.566 65.824 29.465 65.746 29.352 65.719 c 29.348 65.719
 29.336 65.715 29.332 65.711 c 29.809 65.504 30.008 65.41 29.984 65.355 
c 29.969 65.312 30.121 65.191 30.316 65.078 c 30.555 64.941 30.871 64.645
 31.301 64.207 c h
24 65.152 m 24.117 65.266 24.238 65.359 24.367 65.453 c 24.25 65.512 24.125
 65.582 24 65.652 c h
26.359 66.348 m 27.148 66.418 27.668 66.535 27.695 66.637 c 27.715 66.695
 27.777 66.73 27.84 66.711 c 27.902 66.695 27.992 66.73 28.035 66.797 c 
28.082 66.859 28.172 66.895 28.238 66.879 c 28.43 66.828 28.637 67.098 28.578
 67.324 c 28.543 67.469 28.582 67.555 28.707 67.68 c 28.809 67.77 28.871
 67.867 28.852 67.898 c 28.828 67.934 28.895 68.07 29.008 68.207 c 29.191
 68.457 29.316 68.922 29.289 69.195 c 29.277 69.273 29.277 69.457 29.305
 69.613 c 29.316 69.77 29.305 70 29.258 70.133 c 29.211 70.27 29.184 70.43
 29.207 70.496 c 29.238 70.625 28.453 71.898 28.32 71.93 c 28.277 71.941
 28.141 72.102 28.016 72.281 c 27.891 72.461 27.738 72.613 27.676 72.621
 c 27.539 72.621 27.148 72.832 26.941 72.996 c 26.859 73.062 26.648 73.137
 26.473 73.16 c 26.129 73.211 24.75 72.945 24.719 72.824 c 24.707 72.781
 24.633 72.766 24.547 72.785 c 24.375 72.828 23.883 72.465 23.898 72.301
 c 23.918 72.234 23.84 72.078 23.727 71.949 c 23.617 71.801 23.496 71.465
 23.41 71.148 c 23.398 71.148 l 23.32 70.828 23.273 70.527 23.32 70.445 
c 23.359 70.383 23.363 70.223 23.332 70.09 c 23.301 69.961 23.305 69.758
 23.344 69.641 c 23.383 69.523 23.395 69.355 23.375 69.266 c 23.355 69.176
 23.387 69.07 23.445 69.023 c 23.508 68.977 23.547 68.914 23.523 68.875 
c 23.512 68.836 23.574 68.656 23.688 68.477 c 23.801 68.293 23.887 68.109
 23.875 68.066 c 23.863 68.023 23.922 67.949 24.008 67.895 c 24.094 67.84
 24.137 67.773 24.102 67.738 c 24.062 67.707 24.07 67.609 24.137 67.52 c
 24.188 67.434 24.219 67.316 24.207 67.266 c 24.191 67.215 24.234 67.172
 24.293 67.172 c 24.359 67.191 24.504 67.051 24.629 66.906 c 24.75 66.762
 24.887 66.66 24.934 66.672 c 24.98 66.691 25.223 66.602 25.473 66.504 c
 25.832 66.352 26.016 66.32 26.359 66.348 c h
55.426 71.551 m 61.855 73.488 l 55.426 73.914 l h
31.844 72.125 m 32.305 72.488 32.836 72.762 33.426 72.938 c 33.992 73.109
 l 33.648 73.301 33.172 73.625 33.156 73.68 c 33.141 73.742 32.98 73.887
 32.805 74.004 c 32.625 74.121 32.465 74.262 32.453 74.312 c 32.438 74.367
 32.328 74.457 32.215 74.516 c 32.098 74.578 32.008 74.676 32.016 74.734
 c 32.031 74.797 31.969 74.906 31.867 74.973 c 31.832 75.004 31.785 75.07
 31.734 75.168 c 31.32 74.719 30.824 74.383 30.266 74.164 c 30.664 73.867
 30.938 73.57 31.266 73.066 c 31.449 72.781 31.641 72.543 31.691 72.531 
c 31.738 72.52 31.77 72.465 31.758 72.418 c 31.746 72.371 31.781 72.258 
31.828 72.172 c 31.836 72.16 31.836 72.141 31.844 72.125 c h
36.062 73.852 m 36.133 73.844 36.184 73.844 36.199 73.859 c 36.23 73.898
 36.484 73.938 36.75 73.977 c 37.141 74.016 37.316 74.078 37.602 74.27 c
 38.258 74.715 38.656 75.07 38.629 75.172 c 38.617 75.234 38.656 75.293 
38.719 75.309 c 38.781 75.324 38.844 75.398 38.848 75.477 c 38.859 75.555
 38.918 75.633 38.988 75.648 c 39.18 75.699 39.227 76.035 39.066 76.207 
c 38.965 76.312 38.957 76.406 39.008 76.578 c 39.051 76.703 39.055 76.82
 39.027 76.836 c 38.988 76.859 38.98 77.012 39.012 77.184 c 39.051 77.492
 38.934 77.957 38.777 78.184 c 38.73 78.246 38.641 78.406 38.59 78.555 c
 38.523 78.699 38.402 78.895 38.293 78.988 c 38.188 79.086 38.086 79.211
 38.074 79.277 c 38.039 79.406 36.73 80.141 36.602 80.105 c 36.559 80.09
 36.363 80.164 36.164 80.262 c 35.965 80.355 35.758 80.414 35.699 80.391
 c 35.582 80.324 35.137 80.32 34.875 80.363 c 34.773 80.379 34.555 80.344
 34.387 80.281 c 34.062 80.152 32.984 79.25 33.02 79.133 c 33.031 79.09 
32.969 79.039 32.887 79.016 c 32.715 78.969 32.465 78.41 32.559 78.273 c
 32.605 78.227 32.617 78.051 32.578 77.883 c 32.555 77.703 32.613 77.348
 32.691 77.027 c 32.68 77.027 l 32.766 76.707 32.875 76.422 32.957 76.375
 c 33.02 76.336 33.102 76.199 33.137 76.07 c 33.172 75.938 33.273 75.766
 33.367 75.68 c 33.457 75.598 33.551 75.457 33.574 75.367 c 33.598 75.281
 33.684 75.203 33.758 75.191 c 33.836 75.18 33.895 75.145 33.895 75.098 
c 33.902 75.059 34.047 74.934 34.234 74.832 c 34.422 74.727 34.586 74.609
 34.598 74.566 c 34.609 74.52 34.695 74.484 34.797 74.48 c 34.898 74.473
 34.969 74.434 34.957 74.387 c 34.938 74.344 34.992 74.262 35.09 74.211 
c 35.18 74.164 35.262 74.074 35.273 74.023 c 35.285 73.973 35.344 73.957
 35.398 73.984 c 35.445 74.035 35.641 73.984 35.816 73.918 c 35.906 73.883
 35.992 73.863 36.062 73.852 c h
40.422 75.051 m 46.395 76.852 l 46.395 78.746 l 46.395 79.758 46.766 80.703
 47.438 81.512 c 39.922 81.512 l 40.047 81.438 40.379 80.875 40.332 80.793
 c 40.309 80.754 40.363 80.668 40.477 80.602 c 40.637 80.5 40.699 80.332
 40.883 79.629 c 41.176 78.414 41.203 78.32 41.125 78.297 c 41.082 78.285
 41.07 78.094 41.102 77.867 c 41.145 77.516 41.09 77.023 40.906 76.02 c 
40.883 75.898 40.805 75.746 40.738 75.68 c 40.668 75.609 40.625 75.508 40.645
 75.441 c 40.66 75.375 40.609 75.254 40.52 75.176 c 40.5 75.156 40.453 75.086
 40.422 75.051 c h
31.965 81.457 m 31.977 81.469 31.98 81.484 31.988 81.5 c 31.992 81.504 
32 81.508 32 81.512 c 31.922 81.512 l 31.938 81.492 31.949 81.473 31.965
 81.457 c h
31.965 81.457 m f
Q Q
showpage
%%Trailer
end
%%EOF
