<?xml version="1.0" encoding="UTF-8" standalone="no"?>
<svg
   xmlns:dc="http://purl.org/dc/elements/1.1/"
   xmlns:cc="http://creativecommons.org/ns#"
   xmlns:rdf="http://www.w3.org/1999/02/22-rdf-syntax-ns#"
   xmlns:svg="http://www.w3.org/2000/svg"
   xmlns="http://www.w3.org/2000/svg"
   xmlns:sodipodi="http://sodipodi.sourceforge.net/DTD/sodipodi-0.dtd"
   xmlns:inkscape="http://www.inkscape.org/namespaces/inkscape"
   width="47.299656mm"
   height="75.355057mm"
   viewBox="0 0 47.299656 75.355057"
   version="1.1"
   id="svg3480"
   inkscape:version="1.0.1 (0767f8302a, 2020-10-17)">
  <defs
     id="defs3474" />
  <sodipodi:namedview
     id="base"
     pagecolor="#ffffff"
     bordercolor="#666666"
     borderopacity="1.0"
     inkscape:pageopacity="0.0"
     inkscape:pageshadow="2"
     inkscape:zoom="0.35"
     inkscape:cx="-156.89445"
     inkscape:cy="-247.10058"
     inkscape:document-units="mm"
     inkscape:current-layer="layer1"
     inkscape:document-rotation="0"
     showgrid="false"
     inkscape:window-width="1366"
     inkscape:window-height="713"
     inkscape:window-x="0"
     inkscape:window-y="27"
     inkscape:window-maximized="1"
     fit-margin-top="0"
     fit-margin-left="0"
     fit-margin-right="0"
     fit-margin-bottom="0" />
  <metadata
     id="metadata3477">
    <rdf:RDF>
      <cc:Work
         rdf:about="">
        <dc:format>image/svg+xml</dc:format>
        <dc:type
           rdf:resource="http://purl.org/dc/dcmitype/StillImage" />
        <dc:title></dc:title>
      </cc:Work>
    </rdf:RDF>
  </metadata>
  <g
     inkscape:label="Layer 1"
     inkscape:groupmode="layer"
     id="layer1"
     transform="translate(-94.839048,-188.37669)">
    <path
       id="path4180"
       style="font-style:normal;font-variant:normal;font-weight:bold;font-stretch:normal;font-size:40px;line-height:1.25;font-family:'Comic Neue';-inkscape-font-specification:'Comic Neue, Bold';font-variant-ligatures:normal;font-variant-caps:normal;font-variant-numeric:normal;font-feature-settings:normal;text-align:start;letter-spacing:0px;word-spacing:0px;writing-mode:lr-tb;text-anchor:start;fill:#ffffff;fill-opacity:1;stroke:#000000;stroke-width:1.98905;stroke-miterlimit:4;stroke-dasharray:none;stroke-opacity:1"
       d="m 101.12007,262.73104 q -2.049912,0.10741 -3.668204,-1.51049 -1.618293,-1.61829 -1.618293,-3.66781 v -62.89541 q 0,-2.15733 1.510486,-3.66781 1.618293,-1.6183 3.883821,-1.6183 2.15733,0 3.66781,1.6183 1.6183,1.51048 1.6183,3.66781 v 57.17768 l 29.34408,-1.94211 q 2.26553,-0.10741 3.77602,1.40268 1.51009,1.40228 1.51009,3.77602 0,1.94171 -1.51009,3.66781 -1.40268,1.61829 -3.34479,1.7261 z"
       inkscape:connector-curvature="0" />
  </g>
</svg>
